{
  "items": [
    {
      "link": "/",
      "title": "Kate &amp; Michael"
    },
    {
      "link": "/ceremony",
      "title": "Ceremony"
    },
    {
      "link": "/reception",
      "title": "Reception"
    },
    {
      "link": "/accommodation",
      "title": "Accommodation"
    },
    {
      "link": "/gifts",
      "title": "Gifts"
    },
    {
      "link": "/contact",
      "title": "Contact"
    }
  ]
}
